.Xil/Vivado-6826-rasmus-OptiPlex-3050/hw_ila_data_1/zip_work/waveform.vcd
$date
        2024-Dec-04 17:21:21
$end
$version
        Vivado v2021.1 (64-bit)
$end
$timescale
        1ps
$end
$scope module dut $end
$var reg 1 " LVDS_DATA_0_DBG $end
$var reg 1 # LVDS_DATA_1_DBG $end
$var reg 1 $ LVDS_DATA_2_DBG $end
$var reg 1 % LVDS_DATA_3_DBG $end
$var reg 1 & _TRIGGER $end
$var reg 1 ' _WINDOW $end
$var reg 1 ( _GAP $end
$upscope $end
$enddefinitions $end
#0
$dumpvars
0"
0#
0$
0%
0&
1'
0(
$end
#1
1$
1%
#3
0%
#5
0$
#6
1$
1%
#7
0$
#8
1$
0%
#10
0$
#11
1$
1%
#12
0$
#13
1$
0%
#16
1%
#17
0$
#18
1$
#19
0$
0%
#20
1$
1%
#22
0$
#23
1$
#24
0$
0%
#25
1$
1%
#26
0$
#28
1$
#29
0$
0%
#30
1$
1%
#31
0$
0%
#32
1%
#33
1$
#34
0$
0%
#35
1$
1%
#36
0$
0%
#37
1$
1%
#38
0%
#39
0$
#40
1$
1%
#41
0$
0%
#42
1$
1%
#43
0%
#44
0$
#45
1$
1%
#46
0$
0%
#47
1$
1%
#48
0$
0%
#49
1$
#51
0$
#52
1$
1%
#53
0$
0%
#54
1$
#56
0$
#57
1$
1%
#58
0$
0%
#59
1$
1%
#60
0$
0%
#61
1$
#62
1%
#63
0$
0%
#64
1$
1%
#65
0$
0%
#66
1$
1%
#67
0$
#68
1$
0%
#69
1%
#70
1#
0$
0%
#71
0#
1$
1%
#72
0$
#73
1$
0%
#74
1%
#75
0$
0%
#76
1$
1%
#77
0$
0%
#79
1$
#80
0$
#81
1$
1%
#82
0$
0%
#83
1$
#85
0$
#86
1$
1%
#87
0$
0%
#88
1$
#89
0$
#90
1$
#92
0$
#93
1$
1%
#94
0$
0%
#95
1$
#99
0$
#100
1$
1%
#101
0%
#102
1%
#104
0$
0%
#105
1$
1%
#106
0$
0%
#107
1$
1%
#108
0$
#109
0%
#110
1$
1%
#111
1#
0$
0%
#112
0#
1$
1%
#113
0$
#114
0%
#115
1$
1%
#116
0$
0%
#117
1$
1%
#118
0$
0%
#120
1$
1%
#121
0$
0%
#122
1$
1%
#123
0$
0%
#124
1$
1%
#126
0$
0%
#127
1$
1%
#128
0$
0%
#129
1$
1%
#130
0$
0%
#131
1$
#132
1%
#133
0$
0%
#134
1$
1%
#135
0$
0%
#136
1$
#137
1%
#138
0$
0%
#139
1$
1%
#140
0$
0%
#141
1$
#142
1%
#143
0%
#144
1%
#145
0$
0%
#146
1$
1%
#147
0$
#148
1$
0%
#149
1%
#150
0$
0%
#151
1$
1%
#152
0$
0%
#153
1$
#154
0$
1%
#155
0%
#156
1$
1%
#157
0$
0%
#158
1$
#159
0$
#160
1%
#161
1$
#162
0$
0%
#163
1$
#164
0$
#165
1$
1%
#166
0%
#167
0$
#168
1$
1%
#169
0$
0%
#170
1$
1%
#171
0%
#172
0$
#173
1$
1%
#174
0$
0%
#175
1$
1%
#176
0$
0%
#177
1$
#179
0$
#180
1$
1%
#181
0$
0%
#182
1$
#184
0$
#185
1$
1%
#186
0$
0%
#187
1$
1%
#188
0$
0%
#189
1$
1%
#191
0$
0%
#192
1$
1%
#193
0$
0%
#194
1$
1%
#195
0$
#196
0%
#197
1$
1%
#198
1#
0$
0%
#199
0#
1$
1%
#200
0$
#201
0%
#202
1$
1%
#203
0$
0%
#204
1$
1%
#205
0$
0%
#207
1$
1%
#208
0$
0%
#209
1$
1%
#210
0$
0%
#211
1$
1%
#213
0$
0%
#214
1$
1%
#215
0$
0%
#216
1$
1%
#217
0$
#218
1$
0%
#220
0$
#221
1$
1%
#222
0$
#223
1$
0%
#225
0$
#226
1$
1%
#227
0$
#228
1$
0%
#231
1%
#232
0$
#233
1$
#234
0$
0%
#235
1$
1%
#236
0$
#238
1$
#239
0$
0%
#240
1$
1%
#241
0$
#243
1$
#244
0$
0%
#245
1$
1%
#246
0$
0%
#247
1%
#248
1$
0%
#249
0$
#250
1$
1%
#251
0$
0%
#252
1$
1%
#253
0%
#254
0$
#255
1$
1%
#256
0$
0%
#257
1$
1%
#258
0%
#259
0$
#260
1$
1%
#261
0$
0%
#262
1$
1%
#263
0$
0%
#264
1$
#266
0$
#267
1$
1%
#268
0$
0%
#269
1$
#272
1%
#273
0%
#274
1%
#275
0$
0%
#276
1$
1%
#278
0%
#279
1%
#280
0$
0%
#281
1$
#282
0$
1%
#283
0%
#284
1$
1%
#285
0$
0%
#286
1$
1%
#287
0$
#288
0%
#289
1$
1%
#290
0$
0%
#291
1$
1%
#292
0$
0%
#293
1$
#295
0$
#296
1$
1%
#297
0$
0%
#298
1$
#300
0$
#301
1$
#302
0$
#303
1$
1%
#304
0$
0%
#305
1$
#307
0$
#308
1$
#309
0$
#310
1$
#314
0$
#315
1$
1%
#316
0$
0%
#317
1$
1%
#319
0$
0%
#320
1$
1%
#321
0$
0%
#322
1$
1%
#323
0$
#324
0%
#325
1$
1%
#326
1#
0$
0%
#327
0#
1$
1%
#328
0$
0%
#330
1$
1%
#331
0$
0%
#332
1$
1%
#333
0$
0%
#335
1$
1%
#336
0$
0%
#337
1$
1%
#338
0$
0%
#339
1$
1%
#340
0%
#341
0$
#342
1$
1%
#343
0$
0%
#344
1$
1%
#345
0$
0%
#346
1$
#347
1%
#348
0$
0%
#349
1$
1%
#350
0$
0%
#351
1$
#352
1%
#353
0%
#354
1%
#355
0$
0%
#356
1$
1%
#358
0%
#359
1%
#360
0$
0%
#361
1$
1%
#362
0$
0%
#363
1$
#364
0$
1%
#365
0%
#366
1$
1%
#367
0$
0%
#368
1$
#369
0$
1%
#370
0%
#371
1$
1%
#372
0$
0%
#373
1$
#374
0$
#375
1%
#376
1$
0%
#377
0$
#378
1$
#379
0$
#380
1$
1%
#381
0%
#382
0$
#383
1$
1%
#384
0$
0%
#385
1$
1%
#386
0$
0%
#387
1$
#389
0$
#390
1$
1%
#391
0$
0%
#392
1$
#394
0$
#395
1$
1%
#396
0$
0%
#397
1$
1%
#398
0%
#400
1%
#401
0$
0%
#402
1$
1%
#403
0$
0%
#404
1$
1%
#405
0$
#406
0%
#407
1$
1%
#408
1#
0$
0%
#409
0#
1$
1%
#410
0$
#411
0%
#412
1$
1%
#413
1#
0$
0%
#414
0#
1$
1%
#415
0$
0%
#417
1$
1%
#418
0$
0%
#419
1$
1%
#420
0$
0%
#421
1$
1%
#423
0$
0%
#424
1$
1%
#425
0$
0%
#426
1$
1%
#428
0$
0%
#429
1$
1%
#430
0$
0%
#431
1$
1%
#432
0$
#433
1$
0%
#435
0$
#436
1$
1%
#437
0$
#438
1$
0%
#440
0$
#441
1$
1%
#442
0$
#443
1$
#444
0$
0%
#445
1$
1%
#447
0$
#448
1$
#449
0$
0%
#450
1$
1%
#451
0$
#453
1$
#454
0$
0%
#455
1$
1%
#456
0$
0%
#457
1%
#458
1$
#459
0$
0%
#460
1$
1%
#461
0$
0%
#462
1$
1%
#463
0%
#464
0$
#465
1$
1%
#466
0$
0%
#467
1$
1%
#468
0%
#469
0$
#470
1$
1%
#471
0$
0%
#472
1$
1%
#473
0$
0%
#474
1$
#475
1%
#476
0$
0%
#477
1$
1%
#478
0$
0%
#479
1$
#482
1%
#483
0$
0%
#484
1$
1%
#485
0$
0%
#486
1$
#487
1%
#488
0%
#489
1%
#490
0$
0%
#491
1$
#492
0$
1%
#493
1$
0%
#494
1%
#495
1#
0$
0%
#496
0#
1$
#497
0$
1%
#498
0%
#499
1$
1%
#500
0$
0%
#501
1$
1%
#502
0$
0%
#504
1$
1%
#505
0$
0%
#506
1$
1%
#507
0$
0%
#508
1$
#510
0$
#511
1$
1%
#512
0$
0%
#513
1$
#514
0$
#515
1$
#517
0$
#518
1$
1%
#519
0$
0%
#520
1$
#524
0$
#525
1$
#528
1%
#529
0$
0%
#530
1$
1%
#531
0$
0%
#532
1$
1%
#533
0$
#534
0%
#535
1$
1%
#536
1#
0$
0%
#537
0#
1$
1%
#538
0$
#539
0%
#540
1$
1%
#541
0$
0%
#542
1$
1%
#543
0$
0%
#545
1$
1%
#546
0$
0%
#547
1$
1%
#548
0$
0%
#549
1$
1%
#550
0%
#551
0$
#552
1$
1%
#553
0$
0%
#554
1$
1%
#555
0%
#556
0$
#557
1$
1%
#558
0$
0%
#559
1$
1%
#560
0$
0%
#561
1$
#562
1%
#563
0$
0%
#564
1$
1%
#565
0$
0%
#566
1$
#567
1%
#568
0$
0%
#569
1$
1%
#570
0$
0%
#571
1$
1%
#572
0$
#573
1$
0%
#574
1%
#575
0$
0%
#576
1$
1%
#577
0$
0%
#578
1$
#579
0$
1%
#580
0%
#581
1$
1%
#582
0$
0%
#583
1$
#584
0$
#586
1$
1%
#587
0$
0%
#588
1$
#589
0$
#590
1$
1%
#591
0%
#592
0$
#593
1$
1%
#594
0$
0%
#595
1$
1%
#596
0%
#597
0$
#598
1$
#599
0$
#600
1$
1%
#601
0$
0%
#602
1$
#604
0$
#605
1$
1%
#606
0$
0%
#607
1$
#610
1%
#611
0$
0%
#612
1$
1%
#613
0%
#615
1%
#616
0$
0%
#617
1$
1%
#618
0$
0%
#619
1$
1%
#620
0$
#621
0%
#622
1$
1%
#623
1#
0$
0%
#624
0#
1$
1%
#625
0$
#626
0%
#627
1$
1%
#628
0$
0%
#629
1$
1%
#630
0$
0%
#631
1$
#632
1%
#633
0$
0%
#634
1$
1%
#635
0$
0%
#636
1$
1%
#638
0$
0%
#639
1$
1%
#640
0$
0%
#641
1$
1%
#642
0$
#643
1$
0%
#645
0$
#646
1$
1%
#647
0$
#648
1$
0%
#650
0$
#651
1$
1%
#652
0$
#653
1$
0%
#656
1%
#657
0$
#658
1$
#659
0$
0%
#660
1$
1%
#661
0$
#663
1$
#664
0$
0%
#665
1$
1%
#666
0$
#668
1$
#669
0$
0%
#670
1$
1%
#671
0$
0%
#672
1$
1%
#673
0%
#674
0$
#675
1$
1%
#676
0$
0%
#677
1$
1%
#678
0%
#679
0$
#680
1$
1%
#681
0$
0%
#682
1$
1%
#683
0%
#684
0$
#685
1$
1%
#686
0$
0%
#687
1$
1%
#688
0$
0%
#689
1$
#691
0$
#692
1$
1%
#693
0$
0%
#694
1$
#697
1%
#698
0$
0%
#699
1$
1%
#700
0$
0%
#701
1$
1%
#703
0$
0%
#704
1$
1%
#705
0$
0%
#706
1$
#707
0$
1%
#708
0%
#709
1$
1%
#710
0$
0%
#711
1$
1%
#712
0$
#713
0%
#714
1$
1%
#715
0$
0%
#716
1$
1%
#717
0$
0%
#718
1$
#720
0$
#721
1$
1%
#722
0$
0%
#723
1$
#725
0$
#726
1$
1%
#727
0$
0%
#728
1$
1%
#729
0$
0%
#730
1$
#732
0$
#733
1$
1%
#734
0$
0%
#735
1$
#739
0$
#740
1$
1%
#741
0$
0%
#742
1$
1%
#744
0$
0%
#745
1$
1%
#746
0$
0%
#747
1$
1%
#748
0$
#749
0%
#750
1$
1%
#751
1#
0$
0%
#752
0#
1$
1%
#753
0$
0%
#755
1$
1%
#756
0$
0%
#757
1$
1%
#758
0$
0%
#760
1$
1%
#761
0$
0%
#762
1$
1%
#763
0$
0%
#764
1$
1%
#765
0%
#766
0$
#767
1$
1%
#768
0$
0%
#769
1$
1%
#770
0$
0%
#771
1$
#772
1%
#773
0$
0%
#774
1$
1%
#775
0$
0%
#776
1$
#777
1%
#778
0%
#779
1%
#780
0$
0%
#781
1$
#782
1%
#783
0%
#784
1%
#785
0$
0%
#786
1$
1%
#787
0$
#788
1$
0%
#789
0$
1%
#790
0%
#791
1$
1%
#792
0$
0%
#793
1$
#794
0$
1%
#795
0%
#796
1$
1%
#797
0$
0%
#798
1$
#799
0$
#800
1%
#801
1$
0%
#802
0$
#803
1$
#804
0$
#805
1$
1%
#806
0%
#807
0$
#808
1$
1%
#809
0$
0%
#810
1$
1%
#811
0%
#812
0$
#813
1$
#814
0$
#815
1$
1%
#816
0$
0%
#817
1$
#819
0$
#820
1$
1%
#821
0$
0%
#822
1$
#824
0$
#825
1$
1%
#826
0$
0%
#827
1$
1%
#828
0$
0%
#829
1$
1%
#831
0$
0%
#832
1$
1%
#833
1#
0$
0%
#834
0#
1$
1%
#835
0$
#836
0%
#837
1$
1%
#838
0$
0%
#839
1$
1%
#840
0$
0%
#842
1$
1%
#843
0$
0%
#844
1$
1%
#845
0$
0%
#846
1$
#847
1%
#848
0$
0%
#849
1$
1%
#850
0$
0%
#851
1$
1%
#853
0$
0%
#854
1$
1%
#855
0$
0%
#856
1$
1%
#857
0$
#858
1$
0%
#860
0$
#861
1$
1%
#862
0$
#863
1$
0%
#865
0$
#866
1$
1%
#867
0$
#868
1$
0%
#869
0$
#870
1$
1%
#872
0$
#873
1$
#874
0$
0%
#875
1$
1%
#876
0$
#878
1$
#879
0$
0%
#880
1$
1%
#881
0$
0%
#882
1%
#883
1$
#884
0$
0%
#885
1$
1%
#886
0$
0%
#887
1$
1%
#888
0%
#889
0$
#890
1$
1%
#891
0$
0%
#892
1$
1%
#893
0%
#894
0$
#895
1$
1%
#896
0$
0%
#897
1$
1%
#898
0$
0%
#899
1$
#900
1%
#901
0$
0%
#902
1$
1%
#903
0$
0%
#904
1$
#906
0$
#907
1$
1%
#908
0$
0%
#909
1$
#912
1%
#913
0$
0%
#914
1$
1%
#915
0$
0%
#916
1$
1%
#917
0$
#918
0%
#919
1$
1%
#920
1#
0$
0%
#921
0#
1$
#922
0$
1%
#923
0%
#924
1$
1%
#925
0$
0%
#926
1$
1%
#927
0$
#928
0%
#929
1$
1%
#930
0$
0%
#931
1$
1%
#932
0$
0%
#933
1$
#935
0$
#936
1$
1%
#937
0$
0%
#938
1$
#939
0$
#941
1$
#942
0$
#943
1$
1%
#944
0$
0%
#945
1$
#947
0$
#948
1$
#949
0$
#950
1$
#953
1%
#954
0$
0%
#955
1$
1%
#956
0$
0%
#957
1$
1%
#959
0$
0%
#960
1$
1%
#961
0$
0%
#962
1$
1%
#963
0$
#964
0%
#965
1$
1%
#966
0$
0%
#967
1$
1%
#968
0$
0%
#970
1$
1%
#971
0$
0%
#972
1$
1%
#973
0$
0%
#975
1$
1%
#976
0$
0%
#977
1$
1%
#978
0$
0%
#979
1$
1%
#980
0%
#981
0$
#982
1$
1%
#983
0$
0%
#984
1$
1%
#985
0$
0%
#986
1$
#987
1%
#988
0$
0%
#989
1$
1%
#990
0$
0%
#991
1$
#992
1%
#993
0%
#994
1%
#995
0$
0%
#996
1$
1%
#997
0$
#998
1$
0%
#999
1%
#1000
0$
0%
#1001
1$
1%
#1002
0$
0%
#1003
1$
#1004
0$
1%
#1005
0%
#1006
1$
1%
#1007
0$
0%
#1008
1$
#1009
0$
1%
#1010
0%
#1011
1$
1%
#1012
0$
0%
#1013
1$
#1014
0$
#1015
1%
#1016
1$
0%
#1017
0$
#1018
1$
#1019
0$
#1020
1$
1%
#1021
0%
#1022
0$
#1023
1$
1%
#1024
0$
0%
1&
#1025
1$
1%
#1026
0$
0%
#1027
1$
#1029
0$
#1030
1$
1%
#1031
0$
0%
#1032
1$
#1034
0$
#1035
1$
1%
#1036
0$
0%
#1037
1$
1%
#1038
0%
#1040
1%
#1041
0$
0%
#1042
1$
1%
#1043
0$
0%
#1044
1$
1%
#1045
0$
#1046
0%
#1047
1$
1%
#1048
1#
0$
0%
#1049
0#
1$
1%
#1050
0$
#1051
0%
#1052
1$
1%
#1053
0$
0%
#1054
1$
1%
#1055
0$
0%
#1057
1$
1%
#1058
0$
0%
#1059
1$
1%
#1060
0$
0%
#1061
1$
1%
#1063
0$
0%
#1064
1$
1%
#1065
0$
0%
#1066
1$
1%
#1068
0$
0%
#1069
1$
1%
#1070
0$
0%
#1071
1$
1%
#1072
0$
#1073
1$
0%
#1075
0$
#1076
1$
1%
#1077
0$
#1078
1$
0%
#1081
1%
#1082
0$
#1083
1$
#1084
0$
0%
#1085
1$
1%
#1087
0$
#1088
1$
#1089
0$
0%
#1090
1$
1%
#1091
0$
#1093
1$
#1094
0$
0%
#1095
1$
1%
#1096
0$
0%
#1097
1%
#1098
1$
#1099
0$
0%
#1100
1$
1%
#1101
0$
0%
#1102
1$
1%
#1103
0%
#1104
0$
#1105
1$
1%
#1106
0$
0%
#1107
1$
1%
#1108
0%
#1109
0$
#1110
1$
1%
#1111
0$
0%
#1112
1$
1%
#1113
0$
0%
#1114
1$
#1115
1%
#1116
0$
0%
#1117
1$
1%
#1118
0$
0%
#1119
1$
#1122
1%
#1123
0$
0%
#1124
1$
1%
#1125
0$
0%
#1126
1$
#1127
1%
#1128
0$
0%
#1129
1$
1%
#1130
0$
0%
#1131
1$
#1132
0$
1%
#1133
1$
0%
#1134
1%
#1135
1#
0$
0%
#1136
0#
1$
#1137
0$
1%
#1138
0%
#1139
1$
1%
#1140
0$
0%
#1141
1$
1%
#1142
0$
0%
#1143
1$
#1145
0$
#1146
1$
1%
#1147
0$
0%
#1148
1$
#1150
0$
#1151
1$
1%
#1152
0$
0%
#1153
1$
#1154
0$
#1155
1$
#1157
0$
#1158
1$
1%
#1159
0$
0%
#1160
1$
#1164
0$
#1165
1$
1%
#1166
0%
#1167
1%
#1169
0$
0%
#1170
1$
1%
#1171
0$
0%
#1172
1$
1%
#1173
0$
#1174
0%
#1175
1$
1%
#1176
0$
0%
#1177
1$
1%
#1178
0$
#1179
0%
#1180
1$
1%
#1181
0$
0%
#1182
1$
1%
#1183
0$
0%
#1185
1$
1%
#1186
0$
0%
#1187
1$
1%
#1188
0$
0%
#1189
1$
1%
#1191
0$
0%
#1192
1$
1%
#1193
0$
0%
#1194
1$
1%
#1195
0%
#1196
0$
#1197
1$
1%
#1198
0$
0%
#1199
1$
1%
#1200
0$
0%
#1201
1$
#1202
1%
#1203
0$
0%
#1204
1$
1%
#1205
0$
0%
#1206
1$
#1207
1%
#1208
0%
#1209
1%
#1210
0$
0%
#1211
1$
1%
#1212
0$
#1213
1$
0%
#1214
1%
#1215
0$
0%
#1216
1$
1%
#1217
0$
0%
#1218
1$
#1219
0$
1%
#1220
0%
#1221
1$
1%
#1222
0$
0%
#1223
1$
#1224
0$
#1225
1%
#1226
1$
#1227
0$
0%
#1228
1$
#1229
0$
#1230
1$
1%
#1231
0%
#1232
0$
#1233
1$
1%
#1234
0$
0%
#1235
1$
1%
#1236
0%
#1237
0$
#1238
1$
#1239
0$
#1240
1$
1%
#1241
0$
0%
#1242
1$
#1244
0$
#1245
1$
1%
#1246
0$
0%
#1247
1$
#1249
0$
#1250
1$
1%
#1251
0$
0%
#1252
1$
1%
#1253
0$
0%
#1254
1$
1%
#1256
0$
0%
#1257
1$
1%
#1258
0$
0%
#1259
1$
1%
#1260
0$
#1261
0%
#1262
1$
1%
#1263
1#
0$
0%
#1264
0#
1$
1%
#1265
0$
#1266
0%
#1267
1$
1%
#1268
0$
0%
#1269
1$
1%
#1270
0$
0%
#1271
1$
#1272
1%
#1273
0$
0%
#1274
1$
1%
#1275
0$
0%
#1276
1$
1%
#1278
0$
0%
#1279
1$
1%
#1280
0$
0%
#1281
1$
1%
#1282
0$
#1283
1$
0%
#1285
0$
#1286
1$
1%
#1287
0$
#1288
1$
0%
#1290
0$
#1291
1$
1%
#1292
0$
#1293
1$
0%
#1296
1%
#1297
0$
#1298
1$
#1299
0$
0%
#1300
1$
1%
#1301
0$
#1303
1$
#1304
0$
0%
#1305
1$
1%
#1306
0$
#1308
1$
#1309
0$
0%
#1310
1$
1%
#1311
0$
0%
#1312
1%
#1313
1$
0%
#1314
0$
#1315
1$
1%
#1316
0$
0%
#1317
1$
1%
#1318
0%
#1319
0$
#1320
1$
1%
#1321
0$
0%
#1322
1$
1%
#1323
0$
0%
#1325
1$
1%
#1326
0$
0%
#1327
1$
1%
#1328
0$
0%
#1329
1$
#1331
0$
#1332
1$
1%
#1333
0$
0%
#1334
1$
#1337
1%
#1338
0$
0%
#1339
1$
1%
#1340
0$
0%
#1341
1$
#1342
1%
#1343
0%
#1344
1%
#1345
0$
0%
#1346
1$
#1347
0$
1%
#1348
0%
#1349
1$
1%
#1350
0$
0%
#1351
1$
1%
#1352
0$
#1353
0%
#1354
1$
1%
#1355
0$
0%
#1356
1$
1%
#1357
0$
0%
#1358
1$
#1360
0$
#1361
1$
1%
#1362
0$
0%
#1363
1$
#1365
0$
#1366
1$
1%
#1367
0$
0%
#1368
1$
1%
#1369
0$
0%
#1370
1$
#1372
0$
#1373
1$
#1374
0$
#1375
1$
#1379
0$
#1380
1$
1%
#1381
0$
0%
#1382
1$
1%
#1384
0$
0%
#1385
1$
1%
#1386
0$
0%
#1387
1$
1%
#1388
0$
#1389
0%
#1390
1$
1%
#1391
1#
0$
0%
#1392
0#
1$
1%
#1393
0$
#1394
0%
#1395
1$
1%
#1396
0$
0%
#1397
1$
1%
#1398
0$
0%
#1400
1$
1%
#1401
0$
0%
#1402
1$
1%
#1403
0$
0%
#1404
1$
1%
#1405
0%
#1406
0$
#1407
1$
1%
#1408
0$
0%
#1409
1$
1%
#1410
0$
0%
#1411
1$
#1412
1%
#1413
0$
0%
#1414
1$
1%
#1415
0$
0%
#1416
1$
#1417
1%
#1418
0$
0%
#1419
1$
1%
#1420
0$
0%
#1421
1$
#1422
1%
#1423
0%
#1424
1%
#1425
0$
0%
#1426
1$
1%
#1427
0$
#1428
1$
0%
#1429
0$
1%
#1430
0%
#1431
1$
1%
#1432
0$
0%
#1433
1$
#1434
0$
1%
#1435
0%
#1436
1$
1%
#1437
0$
0%
#1438
1$
#1439
0$
#1440
1%
#1441
1$
0%
#1442
0$
#1443
1$
#1444
0$
#1445
1$
1%
#1446
0%
#1447
0$
#1448
1$
1%
#1449
0$
0%
#1450
1$
1%
#1451
0%
#1454
0$
#1455
1$
1%
#1456
0$
0%
#1457
1$
#1459
0$
#1460
1$
1%
#1461
0$
0%
#1462
1$
#1464
0$
#1465
1$
1%
#1466
0$
0%
#1467
1$
1%
#1468
0$
0%
#1469
1$
1%
#1471
0$
0%
#1472
1$
1%
#1473
1#
0$
0%
#1474
0#
1$
1%
#1475
0$
#1476
0%
#1477
1$
1%
#1478
0$
0%
#1479
1$
1%
#1480
0$
0%
#1482
1$
1%
#1483
0$
0%
#1484
1$
1%
#1485
0$
0%
#1486
1$
#1487
1%
#1488
0$
0%
#1489
1$
1%
#1490
0$
0%
#1491
1$
1%
#1493
0$
0%
#1494
1$
1%
#1495
0$
0%
#1496
1$
1%
#1497
0$
#1498
1$
0%
#1500
0$
#1501
1$
1%
#1502
0$
#1503
1$
0%
#1505
0$
#1506
1$
1%
#1507
0$
#1508
1$
0%
#1509
0$
#1510
1$
1%
#1512
0$
#1513
1$
#1514
0$
0%
#1515
1$
1%
#1516
0$
#1518
1$
#1519
0$
0%
#1520
1$
1%
#1521
0$
0%
#1522
1%
#1523
1$
#1524
0$
0%
#1525
1$
1%
#1526
0$
0%
#1527
1$
1%
#1528
0%
#1529
0$
#1530
1$
1%
#1531
0$
0%
#1532
1$
1%
#1533
0%
#1534
0$
#1535
1$
1%
#1536
0$
0%
#1537
1$
1%
#1538
0$
0%
#1539
1$
#1540
1%
#1541
0$
0%
#1542
1$
1%
#1543
0$
0%
#1544
1$
#1546
0$
#1547
1$
1%
#1548
0$
0%
#1549
1$
#1552
1%
#1553
0$
0%
#1554
1$
1%
#1555
0$
0%
#1556
1$
#1557
0$
1%
#1558
0%
#1559
1$
1%
#1560
1#
0$
0%
#1561
0#
1$
#1562
0$
1%
#1563
0%
#1564
1$
1%
#1565
0$
0%
#1566
1$
1%
#1567
0$
0%
#1569
1$
1%
#1570
0$
0%
#1571
1$
1%
#1572
0$
0%
#1573
1$
#1575
0$
#1576
1$
1%
#1577
0$
0%
#1578
1$
#1580
0$
#1581
1$
#1582
0$
#1583
1$
1%
#1584
0$
0%
#1585
1$
#1587
0$
#1588
1$
#1589
0$
#1590
1$
#1594
0$
#1595
1$
1%
#1596
0$
0%
#1597
1$
1%
#1599
0$
0%
#1600
1$
1%
#1601
0$
0%
#1602
1$
1%
#1603
0$
#1604
0%
#1605
1$
1%
#1606
0$
0%
#1607
1$
1%
#1608
0$
0%
#1610
1$
1%
#1611
0$
0%
#1612
1$
1%
#1613
0$
0%
#1614
1$
#1615
1%
#1616
0$
0%
#1617
1$
1%
#1618
0$
0%
#1619
1$
1%
#1620
0%
#1621
0$
#1622
1$
1%
#1623
0$
0%
#1624
1$
1%
#1625
0$
0%
#1626
1$
#1627
1%
#1628
0$
0%
#1629
1$
1%
#1630
0$
0%
#1631
1$
#1632
1%
#1633
0%
#1634
1%
#1635
0$
0%
#1636
1$
1%
#1638
0%
#1639
1%
#1640
0$
0%
#1641
1$
1%
#1642
0$
0%
#1643
1$
#1644
0$
1%
#1645
0%
#1646
1$
1%
#1647
0$
0%
#1648
1$
#1649
0$
1%
#1650
0%
#1651
1$
1%
#1652
0$
0%
#1653
1$
#1654
0$
#1655
1%
#1656
1$
0%
#1657
0$
#1658
1$
#1659
0$
#1660
1$
1%
#1661
0%
#1662
0$
#1663
1$
1%
#1664
0$
0%
#1665
1$
1%
#1666
0$
0%
#1667
1$
#1669
0$
#1670
1$
1%
#1671
0$
0%
#1672
1$
#1674
0$
#1675
1$
1%
#1676
0$
0%
#1677
1$
1%
#1678
0%
#1680
1%
#1681
0$
0%
#1682
1$
1%
#1683
0$
0%
#1684
1$
1%
#1685
0$
#1686
0%
#1687
1$
1%
#1688
1#
0$
0%
#1689
0#
1$
1%
#1690
0$
#1691
0%
#1692
1$
1%
#1693
0$
0%
#1694
1$
1%
#1695
0$
0%
#1697
1$
1%
#1698
0$
0%
#1699
1$
1%
#1700
0$
0%
#1701
1$
1%
#1703
0$
0%
#1704
1$
1%
#1705
0$
0%
#1706
1$
1%
#1708
0$
0%
#1709
1$
1%
#1710
0$
0%
#1711
1$
1%
#1712
0$
#1713
1$
0%
#1715
0$
#1716
1$
1%
#1717
0$
#1718
1$
0%
#1720
0$
#1721
1$
1%
#1722
0$
#1723
1$
#1724
0$
0%
#1725
1$
1%
#1727
0$
#1728
1$
#1729
0$
0%
#1730
1$
1%
#1731
0$
#1733
1$
#1734
0$
0%
#1735
1$
1%
#1736
0$
0%
#1737
1$
1%
#1739
0$
0%
#1740
1$
1%
#1741
0$
0%
#1742
1$
1%
#1743
0%
#1744
0$
#1745
1$
1%
#1746
0$
0%
#1747
1$
1%
#1748
0%
#1749
0$
#1750
1$
1%
#1751
0$
0%
#1752
1$
1%
#1753
0$
0%
#1754
1$
#1755
1%
#1756
0$
0%
#1757
1$
1%
#1758
0$
0%
#1759
1$
#1761
0$
#1762
1$
1%
#1763
0$
0%
#1764
1$
1%
#1765
0$
0%
#1766
1$
#1767
1%
#1768
0$
0%
#1769
1$
1%
#1770
0$
0%
#1771
1$
1%
#1772
0$
#1773
1$
0%
#1774
1%
#1775
0$
0%
#1776
1$
#1777
0$
1%
#1778
0%
#1779
1$
1%
#1780
0$
0%
#1781
1$
1%
#1782
0$
0%
#1784
1$
1%
#1785
0$
0%
#1786
1$
1%
#1787
0$
0%
#1788
1$
#1790
0$
#1791
1$
1%
#1792
0$
0%
#1793
1$
#1794
0$
#1795
1$
#1797
0$
#1798
1$
1%
#1799
0$
0%
#1800
1$
#1804
0$
#1805
1$
1%
#1806
0%
#1807
1%
#1809
0$
0%
#1810
1$
1%
#1811
0$
0%
#1812
1$
1%
#1813
0$
#1814
0%
#1815
1$
1%
#1816
0$
0%
#1817
1$
1%
#1818
0$
#1819
0%
#1820
1$
1%
#1821
0$
0%
#1822
1$
1%
#1823
0$
0%
#1825
1$
1%
#1826
0$
0%
#1827
1$
1%
#1828
0$
0%
#1829
1$
1%
#1830
0%
#1831
0$
#1832
1$
1%
#1833
0$
0%
#1834
1$
1%
#1835
0%
#1836
0$
#1837
1$
1%
#1838
0$
0%
#1839
1$
1%
#1840
0$
0%
#1841
1$
#1842
1%
#1843
0$
0%
#1844
1$
1%
#1845
0$
0%
#1846
1$
#1847
1%
#1848
0%
#1849
1%
#1850
0$
0%
#1851
1$
1%
#1852
0$
#1853
1$
0%
#1854
1%
#1855
0$
0%
#1856
1$
1%
#1857
0$
0%
#1858
1$
#1859
0$
1%
#1860
0%
#1861
1$
1%
#1862
0$
0%
#1863
1$
#1864
0$
#1865
1%
#1866
1$
#1867
0$
0%
#1868
1$
#1869
0$
#1870
1%
#1871
1$
0%
#1872
0$
#1873
1$
1%
#1874
0$
0%
#1875
1$
1%
#1876
0%
#1877
0$
#1878
1$
#1879
0$
#1880
1$
1%
#1881
0$
0%
#1882
1$
#1884
0$
#1885
1$
1%
#1886
0$
0%
#1887
1$
#1889
0$
#1890
1$
1%
#1891
0$
0%
#1892
1$
1%
#1893
0$
0%
#1894
1$
1%
#1896
0$
0%
#1897
1$
1%
#1898
0$
0%
#1899
1$
1%
#1900
0$
#1901
0%
#1902
1$
1%
#1903
1#
0$
0%
#1904
0#
1$
1%
#1905
0$
#1906
0%
#1907
1$
1%
#1908
0$
0%
#1909
1$
1%
#1910
0$
0%
#1911
1$
#1912
1%
#1913
0$
0%
#1914
1$
1%
#1915
0$
0%
#1916
1$
1%
#1918
0$
0%
#1919
1$
1%
#1920
0$
0%
#1921
1$
1%
#1922
0$
#1923
1$
0%
#1925
0$
#1926
1$
1%
#1927
0$
#1928
1$
0%
#1930
0$
#1931
1$
1%
#1932
0$
#1933
1$
0%
#1936
1%
#1937
0$
#1938
1$
#1939
0$
0%
#1940
1$
1%
#1941
0$
#1943
1$
#1944
0$
0%
#1945
1$
1%
#1946
0$
#1948
1$
#1949
0$
0%
#1950
1$
1%
#1951
0$
0%
#1952
1$
1%
#1953
0%
#1954
0$
#1955
1$
1%
#1956
0$
0%
