.Xil/Vivado-4572-rasmus-OptiPlex-3050/hw_ila_data_1/zip_work/waveform.vcd
$date
        2024-Dec-05 19:04:58
$end
$version
        Vivado v2021.1 (64-bit)
$end
$timescale
        1ps
$end
$scope module dut $end
$var reg 1 " LVDS_DATA_0_DBG $end
$var reg 1 # LVDS_DATA_1_DBG $end
$var reg 1 $ LVDS_DATA_2_DBG $end
$var reg 1 % LVDS_DATA_3_DBG $end
$var reg 1 & _TRIGGER $end
$var reg 1 ' _WINDOW $end
$var reg 1 ( _GAP $end
$upscope $end
$enddefinitions $end
#0
$dumpvars
1"
0#
0$
0%
0&
1'
0(
$end
#3
0"
#4
1#
#9
0#
#10
1"
#19
1#
#23
0"
0#
#28
1"
#35
0"
#48
1"
#53
0"
#60
1"
#73
0"
#78
1"
#85
0"
#98
1"
#103
0"
#110
1"
#123
0"
#128
1"
#135
0"
#148
1"
#153
0"
#160
1"
#173
0"
#178
1"
#185
0"
#198
1"
#203
0"
#210
1"
#223
0"
#228
1"
#235
0"
#248
1"
#253
0"
#260
1"
#273
0"
#278
1"
#285
0"
#298
1"
#303
0"
#310
1"
#323
0"
#328
1"
#335
0"
#348
1"
#353
0"
#360
1"
#373
0"
#378
1"
#385
0"
#398
1"
#403
0"
#410
1"
#423
0"
#428
1"
#435
0"
#448
1"
#453
0"
#460
1"
#473
0"
#478
1"
#485
0"
#498
1"
#503
0"
#510
1"
#523
0"
#528
1"
#535
0"
#548
1"
#553
0"
#560
1"
#573
0"
#578
1"
#585
0"
#598
1"
#603
0"
#610
1"
#623
0"
#628
1"
#635
0"
#648
1"
#653
0"
#660
1"
#673
0"
#678
1"
#685
0"
#698
1"
#703
0"
#710
1"
#723
0"
#728
1"
#735
0"
#748
1"
#753
0"
#760
1"
#773
0"
#778
1"
#785
0"
#798
1"
#803
0"
#810
1"
#823
0"
#828
1"
#835
0"
#848
1"
#853
0"
#860
1"
#873
0"
#878
1"
#885
0"
#898
1"
#903
0"
#910
1"
#923
0"
#928
1"
#935
0"
#948
1"
#953
0"
#960
1"
#973
0"
#978
1"
#985
0"
#998
1"
#1003
0"
#1010
1"
#1023
0"
#1024
1&
#1028
1"
#1035
0"
#1048
1"
#1053
0"
#1060
1"
#1073
0"
#1078
1"
#1085
0"
#1098
1"
#1103
0"
#1110
1"
#1123
0"
#1128
1"
#1135
0"
#1148
1"
#1153
0"
#1160
1"
#1173
0"
#1178
1"
#1185
0"
#1198
1"
#1203
0"
#1210
1"
#1223
0"
#1228
1"
#1235
0"
#1248
1"
#1253
0"
#1260
1"
#1273
0"
#1278
1"
#1285
0"
#1298
1"
#1303
0"
#1310
1"
#1323
0"
#1328
1"
#1335
0"
#1348
1"
#1353
0"
#1360
1"
#1373
0"
#1378
1"
#1385
0"
#1398
1"
#1403
0"
#1410
1"
#1423
0"
#1428
1"
#1435
0"
#1448
1"
#1453
0"
#1460
1"
#1473
0"
#1478
1"
#1485
0"
#1498
1"
#1503
0"
#1510
1"
#1523
0"
#1528
1"
#1535
0"
#1548
1"
#1553
0"
#1560
1"
#1573
0"
#1578
1"
#1585
0"
#1598
1"
#1603
0"
#1610
1"
#1623
0"
#1628
1"
#1635
0"
#1648
1"
#1653
0"
#1660
1"
#1673
0"
#1678
1"
#1685
0"
#1698
1"
#1703
0"
#1710
1"
#1723
0"
#1728
1"
#1735
0"
#1748
1"
#1753
0"
#1760
1"
#1773
0"
#1778
1"
#1785
0"
#1798
1"
#1803
0"
#1810
1"
#1823
0"
#1828
1"
#1835
0"
#1848
1"
#1853
0"
#1860
1"
#1873
0"
#1878
1"
#1885
0"
#1898
1"
#1903
0"
#1910
1"
#1923
0"
#1928
1"
#1935
0"
#1948
1"
#1953
0"
#1960
1"
#1973
0"
#1978
1"
#1985
0"
#1998
1"
#2003
0"
#2010
1"
#2023
0"
#2028
1"
#2035
0"
